domain/Game.class
boundary/GameFacade.class
domain/Matches.class
boundary/TourTypeFacadeREST.class
boundary/TourhasTeamFacadeREST.class
boundary/PlayerhasTeamFacade.class
boundary/TourFacade.class
domain/TourhasTeam.class
domain/Game_.class
domain/PlayerhasTeamPK.class
ManagedBean/PlayerView.class
boundary/PlayerhasTeamFacadeREST.class
boundary/TeamFacade.class
boundary/GameFacadeREST.class
domain/TourType_.class
domain/Tour_.class
ManagedBean/TeamView.class
ManagedBean/SignupView.class
boundary/ApplicationConfig.class
boundary/AbstractFacade.class
domain/Team.class
boundary/TourTypeFacade.class
domain/TourhasTeamPK_.class
boundary/PlayerFacade.class
boundary/TourhasTeamFacade.class
domain/Tour.class
boundary/TourFacadeREST.class
domain/TourhasTeamPK.class
domain/Player.class
boundary/PlayerFacadeREST.class
domain/Matches_.class
domain/PlayerhasTeamPK_.class
domain/TourhasTeam_.class
boundary/TourHistoryFacadeREST.class
boundary/MatchesFacade.class
domain/TourType.class
domain/Team_.class
domain/PlayerhasTeam.class
ManagedBean/TourView.class
domain/TourHistory_.class
boundary/MatchesFacadeREST.class
domain/PlayerhasTeam_.class
domain/TourHistory.class
boundary/TeamFacadeREST.class
boundary/TourHistoryFacade.class
ManagedBean/CreateclanView.class
domain/Player_.class
